Swiss Tournament 17.04.2017

Standings after Round 1

Pos. Name                    Points     OMW     GWP     OGW 
----------------------------------------------------------------
   1 Finn-Erik               3          nan    1.000    nan 
   2 Marius                  3         1.000   0.500   1.000
   3 GM                      3         0.500   1.000   0.500
   4 Gøran                   3         0.330   1.000   0.330
   *********************************************************
   5 Jonas                   3         0.330   1.000   0.330
   6 Torgeir                 3         0.330   1.000   0.330
   7 Jonna                   0         1.000   0.330   1.000
   8 Madland                 0         1.000   0.330   1.000
   9 Sindre                  0         1.000   0.330   1.000
----------------------------------------------------------------
